<?xml version="1.0" encoding="UTF-8" standalone="no"?>
<svg
   xmlns:dc="http://purl.org/dc/elements/1.1/"
   xmlns:cc="http://creativecommons.org/ns#"
   xmlns:rdf="http://www.w3.org/1999/02/22-rdf-syntax-ns#"
   xmlns:svg="http://www.w3.org/2000/svg"
   xmlns="http://www.w3.org/2000/svg"
   xmlns:sodipodi="http://sodipodi.sourceforge.net/DTD/sodipodi-0.dtd"
   xmlns:inkscape="http://www.inkscape.org/namespaces/inkscape"
   viewBox="0 0 102.521 36.208"
   class="Login__logo"
   version="1.1"
   id="svg3886"
   sodipodi:docname="abra.svg"
   inkscape:version="0.92.1 r15371">
  <metadata
     id="metadata3890">
    <rdf:RDF>
      <cc:Work
         rdf:about="">
        <dc:format>image/svg+xml</dc:format>
        <dc:type
           rdf:resource="http://purl.org/dc/dcmitype/StillImage" />
        <dc:title></dc:title>
      </cc:Work>
    </rdf:RDF>
  </metadata>
  <sodipodi:namedview
     pagecolor="#ffffff"
     bordercolor="#666666"
     borderopacity="1"
     objecttolerance="10"
     gridtolerance="10"
     guidetolerance="10"
     inkscape:pageopacity="0"
     inkscape:pageshadow="2"
     inkscape:window-width="1918"
     inkscape:window-height="1078"
     id="namedview3888"
     showgrid="false"
     inkscape:zoom="17.54"
     inkscape:cx="50"
     inkscape:cy="18.104"
     inkscape:window-x="0"
     inkscape:window-y="0"
     inkscape:window-maximized="0"
     inkscape:current-layer="svg3886" />
  <defs
     id="defs3824">
    <linearGradient
       id="a"
       x1="0.5"
       y1="1"
       x2="0.5"
       gradientUnits="objectBoundingBox">
      <stop
         offset="0"
         stop-color="#f7b300"
         id="stop3805" />
      <stop
         offset="0.12"
         stop-color="#f6af03"
         id="stop3807" />
      <stop
         offset="0.25"
         stop-color="#f5a20b"
         id="stop3809" />
      <stop
         offset="0.38"
         stop-color="#f28e1a"
         id="stop3811" />
      <stop
         offset="0.51"
         stop-color="#ef712e"
         id="stop3813" />
      <stop
         offset="0.64"
         stop-color="#ea4b47"
         id="stop3815" />
      <stop
         offset="0.77"
         stop-color="#e51e66"
         id="stop3817" />
      <stop
         offset="0.85"
         stop-color="#e1007b"
         id="stop3819" />
      <stop
         offset="1"
         stop-color="#e1007b"
         id="stop3821" />
    </linearGradient>
  </defs>
  <path
     data-name="Path 444"
     fill="url(#a)"
     d="M25.02 0h13.545l13.413 23.483h-13.55z"
     transform="translate(-11.35)"
     id="path3826" />
  <path
     data-name="Path 445"
     fill="#7c7c7b"
     d="M13.671 0L.126 23.483h13.545L27.226 0z"
     id="path3828" />
  <path
     data-name="Path 446"
     fill="#7c7c7b"
     d="M49.173 3.551h3.213l5.841 16.391h-3.492l-1.191-3.551h-5.626l-1.186 3.535h-3.4zm3.333 9.868l-1.765-5.311-1.792 5.311z"
     id="path3830" />
  <path
     data-name="Path 447"
     fill="#7c7c7b"
     d="M59.724 3.639h6.048a5.93 5.93 0 0 1 4.256 1.426 3.765 3.765 0 0 1 1.093 2.765v.071a3.825 3.825 0 0 1-2.185 3.562c1.743.672 2.907 1.743 2.907 3.885v.115c0 2.934-2.349 4.469-5.884 4.469h-6.235zm8.07 4.8c0-1.186-.836-1.814-2.278-1.814h-2.513v3.674h2.349c1.492 0 2.442-.606 2.442-1.836zm-1.836 4.677h-2.956v3.825h3.021c1.519 0 2.47-.65 2.47-1.907 0-1.164-.863-1.89-2.535-1.89"
     id="path3832" />
  <path
     data-name="Path 448"
     fill="#7c7c7b"
     d="M74.236 3.644h6.125a6.1 6.1 0 0 1 4.42 1.557 5.152 5.152 0 0 1 1.371 3.773v.093a4.917 4.917 0 0 1-3.021 4.819l3.469 6.048h-3.868l-3-5.349h-2.12v5.349h-3.376zm5.868 7.955a2.346 2.346 0 0 0 2.65-2.442c0-1.639-1-2.442-2.732-2.442h-2.42v4.917z"
     id="path3834" />
  <path
     data-name="Path 449"
     fill="#7c7c7b"
     d="M93.468 3.551h3.207l5.841 16.391H99.03l-1.229-3.551h-5.589l-1.191 3.535h-3.4zm3.327 9.868l-1.77-5.311-1.792 5.311z"
     id="path3836" />
  <path
     data-name="Path 450"
     fill="#7c7c7b"
     d="M2.043 32.233c-.546-.158-1.016-.311-1.016-.661s.3-.546.732-.546a2.3 2.3 0 0 1 1.213.4l.076.049.382-.634-.071-.049a3.01 3.01 0 0 0-1.584-.481 1.383 1.383 0 0 0-1.54 1.322c0 .874.852 1.093 1.475 1.295s1.022.344 1.022.716-.317.585-.792.585a2.431 2.431 0 0 1-1.421-.546l-.071-.06-.448.624.066.055a3.011 3.011 0 0 0 1.819.667 1.42 1.42 0 0 0 1.606-1.382c0-.836-.863-1.158-1.448-1.35"
     id="path3838" />
  <path
     data-name="Path 451"
     fill="#7c7c7b"
     d="M6.289 30.335A2.317 2.317 0 1 0 8.6 32.63a2.289 2.289 0 0 0-2.311-2.295m0 3.879a1.513 1.513 0 0 1-1.482-1.584 1.481 1.481 0 0 1 1.464-1.557 1.524 1.524 0 0 1 1.492 1.59 1.481 1.481 0 0 1-1.474 1.552"
     id="path3840" />
  <path
     data-name="Path 452"
     fill="#7c7c7b"
     d="M10.714 28.635a1.366 1.366 0 0 0-.978.355 1.639 1.639 0 0 0-.393 1.164v.279h-.601v.71h.6v3.7h.814v-3.7h1.317v-.7h-1.331v-.251c0-.732.372-.82.65-.82a2.136 2.136 0 0 1 .6.1l.115.033v-.732h-.065a1.983 1.983 0 0 0-.732-.115"
     id="path3842" />
  <path
     data-name="Path 453"
     fill="#7c7c7b"
     d="M13.337 29.138h-.814v1.289h-.6v.716h.6v2.481a1.18 1.18 0 0 0 1.294 1.344 1.781 1.781 0 0 0 .809-.191l.049-.027v-.77l-.131.066a1.251 1.251 0 0 1-.579.137c-.426 0-.628-.2-.628-.617v-2.42h1.355v-.716h-1.355z"
     id="path3844" />
  <path
     data-name="Path 454"
     fill="#7c7c7b"
     d="M19.844 33.646l-1.087-3.24h-.656l-1.082 3.24-1.053-3.218h-.87l1.557 4.469h.688l1.087-3.174 1.076 3.174h.683l1.563-4.469h-.852z"
     id="path3846" />
  <path
     data-name="Path 455"
     fill="#7c7c7b"
     d="M23.959 30.357a3.628 3.628 0 0 0-1.59.372l-.076.033.251.694.093-.044a2.852 2.852 0 0 1 1.257-.3c.546 0 1.169.186 1.169 1.06a4.6 4.6 0 0 0-1.213-.153c-1.2 0-1.912.546-1.912 1.5a1.535 1.535 0 0 0 1.683 1.448 1.967 1.967 0 0 0 1.442-.546v.486h.8v-2.736a1.765 1.765 0 0 0-.47-1.317 1.983 1.983 0 0 0-1.437-.5m1.093 2.524v.328a1.186 1.186 0 0 1-1.328 1.055c-.47 0-.978-.235-.978-.776s.443-.765 1.153-.765a4.305 4.305 0 0 1 1.153.158"
     id="path3848" />
  <path
     data-name="Path 456"
     fill="#7c7c7b"
     d="M27.668 31.263v-.841h-.814v4.442h.814v-1.787c0-1.131.628-1.863 1.6-1.863h.136v-.858h-.087a1.841 1.841 0 0 0-1.639.912"
     id="path3850" />
  <path
     data-name="Path 457"
     fill="#7c7c7b"
     d="M31.739 30.333a2.185 2.185 0 0 0-2.136 2.311 2.218 2.218 0 0 0 2.223 2.324 2.267 2.267 0 0 0 1.819-.83l.066-.066-.546-.475-.06.066a1.7 1.7 0 0 1-1.279.546 1.388 1.388 0 0 1-1.4-1.235h3.36v-.082a2.037 2.037 0 0 0 0-.235 2.1 2.1 0 0 0-2.076-2.344m0 .716a1.289 1.289 0 0 1 1.257 1.251h-2.528a1.36 1.36 0 0 1 1.287-1.247"
     id="path3852" />
  <path
     data-name="Path 458"
     fill="#7c7c7b"
     d="M38.464 28.636a1.35 1.35 0 0 0-.978.355 1.6 1.6 0 0 0-.4 1.164v.279h-.583v.71h.585v3.7h.814v-3.7h1.344v-.7h-1.353v-.257c0-.732.372-.82.65-.82a2.071 2.071 0 0 1 .59.1l.12.033v-.732h-.06a1.983 1.983 0 0 0-.732-.115"
     id="path3854" />
  <path
     data-name="Path 459"
     fill="#7c7c7b"
     d="M41.623 30.335a2.295 2.295 0 1 0 1.63.668 2.317 2.317 0 0 0-1.63-.668m0 3.879a1.519 1.519 0 0 1-1.486-1.584 1.486 1.486 0 0 1 1.47-1.557 1.524 1.524 0 0 1 1.492 1.59 1.481 1.481 0 0 1-1.476 1.552"
     id="path3856" />
  <path
     data-name="Path 460"
     fill="#7c7c7b"
     d="M45.513 31.263v-.841h-.814v4.442h.814v-1.787c0-1.131.628-1.863 1.6-1.863h.142v-.858h-.087a1.841 1.841 0 0 0-1.639.912"
     id="path3858" />
  <path
     data-name="Path 461"
     fill="#7c7c7b"
     d="M52.042 33.826l-1.459-3.349v-.055h-.923l1.978 4.338c-.257.59-.481.7-.776.7a1.251 1.251 0 0 1-.6-.148l-.087-.044-.284.672.076.038a2.005 2.005 0 0 0 .945.224c.7 0 1.131-.366 1.5-1.262l1.836-4.524h-.874z"
     id="path3860" />
  <path
     data-name="Path 462"
     fill="#7c7c7b"
     d="M56.632 30.335a2.295 2.295 0 1 0 1.63.668 2.317 2.317 0 0 0-1.63-.668m0 3.879a1.519 1.519 0 0 1-1.486-1.584 1.481 1.481 0 0 1 1.47-1.557 1.519 1.519 0 0 1 1.486 1.59 1.481 1.481 0 0 1-1.47 1.552"
     id="path3862" />
  <path
     data-name="Path 463"
     fill="#7c7c7b"
     d="M62.746 32.952a1.164 1.164 0 0 1-1.186 1.246 1.045 1.045 0 0 1-1.093-1.2v-2.576h-.82v2.732a1.639 1.639 0 0 0 1.732 1.814 1.666 1.666 0 0 0 1.366-.634v.546h.809v-4.458h-.809z"
     id="path3864" />
  <path
     data-name="Path 464"
     fill="#7c7c7b"
     d="M65.406 31.263v-.841h-.814v4.442h.814v-1.787c0-1.131.628-1.863 1.6-1.863h.142v-.858h-.087a1.841 1.841 0 0 0-1.639.912"
     id="path3866" />
  <path
     data-name="Path 465"
     fill="#7c7c7b"
     d="M72.389 30.334a1.9 1.9 0 0 0-1.541.759v-2.425h-.814v6.2h.814v-.639a1.94 1.94 0 0 0 1.541.743 2.317 2.317 0 0 0 0-4.617m-.115.749a1.448 1.448 0 0 1 1.41 1.574 1.421 1.421 0 0 1-1.41 1.546 1.563 1.563 0 0 1 0-3.12"
     id="path3868" />
  <path
     data-name="Path 466"
     fill="#7c7c7b"
     d="M78.35 32.952a1.164 1.164 0 0 1-1.186 1.246 1.045 1.045 0 0 1-1.093-1.2v-2.576h-.814v2.732a1.639 1.639 0 0 0 1.727 1.814 1.666 1.666 0 0 0 1.366-.634v.546h.809v-4.458h-.809z"
     id="path3870" />
  <path
     data-name="Path 467"
     fill="#7c7c7b"
     d="M81.847 32.233c-.546-.158-1.011-.311-1.011-.661s.3-.546.732-.546a2.278 2.278 0 0 1 1.207.4l.082.049.382-.634-.071-.049a3.038 3.038 0 0 0-1.584-.481 1.383 1.383 0 0 0-1.545 1.322c0 .874.852 1.093 1.475 1.295s.994.306.994.677-.317.585-.792.585a2.415 2.415 0 0 1-1.415-.546l-.076-.06-.421.6.06.055a3.027 3.027 0 0 0 1.819.727 1.42 1.42 0 0 0 1.606-1.382c0-.836-.858-1.136-1.448-1.311"
     id="path3872" />
  <path
     data-name="Rectangle 1530"
     fill="#7c7c7b"
     d="M84.038 28.794h.907v.88h-.907z"
     id="path3874" />
  <path
     data-name="Rectangle 1531"
     fill="#7c7c7b"
     d="M84.081 30.428h.814v4.437h-.814z"
     id="path3876" />
  <path
     data-name="Path 468"
     fill="#7c7c7b"
     d="M88.14 30.334a1.688 1.688 0 0 0-1.371.634v-.546h-.814v4.442h.814v-2.53a1.169 1.169 0 0 1 1.2-1.246 1.044 1.044 0 0 1 1.093 1.2v2.579h.814v-2.735a1.639 1.639 0 0 0-1.721-1.792"
     id="path3878" />
  <path
     data-name="Path 469"
     fill="#7c7c7b"
     d="M92.731 30.333a2.185 2.185 0 0 0-2.131 2.311 2.213 2.213 0 0 0 2.213 2.322 2.267 2.267 0 0 0 1.819-.83l.066-.066-.546-.475-.06.066a1.7 1.7 0 0 1-1.279.546 1.388 1.388 0 0 1-1.4-1.235h3.36v-.082a2.039 2.039 0 0 0 0-.235 2.1 2.1 0 0 0-2.076-2.344m0 .716a1.289 1.289 0 0 1 1.257 1.251h-2.541a1.36 1.36 0 0 1 1.284-1.251"
     id="path3880" />
  <path
     data-name="Path 470"
     fill="#7c7c7b"
     d="M97.183 32.233c-.546-.158-1.016-.311-1.016-.661s.3-.546.732-.546a2.311 2.311 0 0 1 1.213.4l.076.049.382-.634-.071-.049a3.021 3.021 0 0 0-1.584-.481 1.383 1.383 0 0 0-1.541 1.322c0 .874.852 1.093 1.475 1.295s.994.306.994.678-.317.585-.787.585a2.431 2.431 0 0 1-1.421-.546l-.076-.06-.421.6.066.055a3.011 3.011 0 0 0 1.819.727 1.42 1.42 0 0 0 1.606-1.382c0-.836-.863-1.136-1.448-1.311"
     id="path3882" />
  <path
     data-name="Path 471"
     fill="#7c7c7b"
     d="M101.076 32.233c-.546-.158-1.016-.311-1.016-.661s.3-.546.732-.546a2.3 2.3 0 0 1 1.213.4l.076.049.382-.634-.071-.049a3.011 3.011 0 0 0-1.584-.481 1.383 1.383 0 0 0-1.541 1.322c0 .874.852 1.093 1.475 1.295s1 .306 1 .678-.322.585-.792.585a2.431 2.431 0 0 1-1.421-.546l-.076-.06-.421.6.066.055a3.011 3.011 0 0 0 1.814.727 1.42 1.42 0 0 0 1.606-1.382c0-.836-.863-1.158-1.442-1.35"
     id="path3884" />
</svg>
