<?xml version="1.0" encoding="UTF-8" standalone="no"?>
<svg
   xmlns:dc="http://purl.org/dc/elements/1.1/"
   xmlns:cc="http://creativecommons.org/ns#"
   xmlns:rdf="http://www.w3.org/1999/02/22-rdf-syntax-ns#"
   xmlns:svg="http://www.w3.org/2000/svg"
   xmlns="http://www.w3.org/2000/svg"
   xmlns:sodipodi="http://sodipodi.sourceforge.net/DTD/sodipodi-0.dtd"
   xmlns:inkscape="http://www.inkscape.org/namespaces/inkscape"
   viewBox="0 0 34 34"
   version="1.1"
   id="svg8"
   sodipodi:docname="avatar.svg"
   inkscape:version="0.92.2 (5c3e80d, 2017-08-06)"
   width="34"
   height="34">
  <metadata
     id="metadata14">
    <rdf:RDF>
      <cc:Work
         rdf:about="">
        <dc:format>image/svg+xml</dc:format>
        <dc:type
           rdf:resource="http://purl.org/dc/dcmitype/StillImage" />
        <dc:title>Datový zdroj 2</dc:title>
      </cc:Work>
    </rdf:RDF>
  </metadata>
  <defs
     id="defs12" />
  <sodipodi:namedview
     pagecolor="#ffffff"
     bordercolor="#666666"
     borderopacity="1"
     objecttolerance="10"
     gridtolerance="10"
     guidetolerance="10"
     inkscape:pageopacity="0"
     inkscape:pageshadow="2"
     inkscape:window-width="1920"
     inkscape:window-height="1057"
     id="namedview10"
     showgrid="false"
     inkscape:zoom="5.3636364"
     inkscape:cx="-13.893229"
     inkscape:cy="18.806925"
     inkscape:window-x="-8"
     inkscape:window-y="-8"
     inkscape:window-maximized="1"
     inkscape:current-layer="svg8"
     fit-margin-top="0"
     fit-margin-left="0"
     fit-margin-right="0"
     fit-margin-bottom="0" />
  <title
     id="title2">Datový zdroj 2</title>
  <g
     id="Vrstva_2"
     data-name="Vrstva 2"
     transform="matrix(0.77272716,0,0,0.77355652,-2.8919082e-6,0.00992653)">
    <g
       id="Vrstva_1-2"
       data-name="Vrstva 1">
      <path
         d="M 44,22 A 22,22 0 1 0 7.14,38.21 v 0 l 0.71,0.6 0.15,0.11 c 0.37,0.31 0.77,0.61 1.17,0.9 l 0.39,0.28 c 0.43,0.29 0.87,0.57 1.31,0.83 l 0.3,0.18 c 0.49,0.27 1,0.54 1.5,0.78 l 0.12,0.05 a 22.62,22.62 0 0 0 5.32,1.69 h 0.14 c 0.58,0.1 1.17,0.18 1.76,0.23 h 0.22 c 0.59,0 1.18,0.08 1.79,0.08 0.61,0 1.19,0 1.78,-0.08 H 24 c 0.59,-0.06 1.17,-0.14 1.74,-0.23 h 0.15 A 21.69,21.69 0 0 0 31.14,42 l 0.18,-0.08 c 0.5,-0.23 1,-0.48 1.45,-0.75 l 0.35,-0.2 c 0.43,-0.25 0.86,-0.52 1.27,-0.8 l 0.43,-0.31 c 0.36,-0.25 0.7,-0.52 1,-0.79 l 0.23,-0.17 0.73,-0.61 v 0 A 21.94,21.94 0 0 0 44,22 Z M 1.6,22 A 20.4,20.4 0 1 1 35.53,37.25 6,6 0 0 0 34.81,36.82 L 28,33.43 a 1.76,1.76 0 0 1 -1,-1.59 v -2.37 c 0.16,-0.19 0.33,-0.41 0.5,-0.65 a 16.18,16.18 0 0 0 2.09,-4.1 2.89,2.89 0 0 0 1.67,-2.63 V 19.25 A 2.93,2.93 0 0 0 30.55,17.36 V 13.62 A 6.46,6.46 0 0 0 29.04,8.93 C 27.62,7.25 25.23,6.4 22,6.4 c -3.23,0 -5.62,0.85 -7.09,2.53 a 6.46,6.46 0 0 0 -1.51,4.69 v 3.74 a 2.88,2.88 0 0 0 -0.71,1.89 v 2.84 a 3,3 0 0 0 1.07,2.26 14.88,14.88 0 0 0 2.48,5.11 v 2.31 a 1.78,1.78 0 0 1 -0.93,1.57 L 9,36.79 A 6.64,6.64 0 0 0 8.4,37.17 20.35,20.35 0 0 1 1.6,22 Z"
         id="path4"
         inkscape:connector-curvature="0"
         style="fill:#dcdcdc" />
    </g>
  </g>
</svg>
