<?xml version="1.0" encoding="utf-8"?>
<!-- Generator: Adobe Illustrator 16.0.4, SVG Export Plug-In . SVG Version: 6.00 Build 0)  -->
<!DOCTYPE svg PUBLIC "-//W3C//DTD SVG 1.1//EN" "http://www.w3.org/Graphics/SVG/1.1/DTD/svg11.dtd">
<svg version="1.1" id="Vrstva_1" xmlns="http://www.w3.org/2000/svg" xmlns:xlink="http://www.w3.org/1999/xlink" x="0px" y="0px"
	 width="1050px" height="1400px" viewBox="0 0 1050 1400" enable-background="new 0 0 1050 1400" xml:space="preserve">
<g>
	<g id="Vrstva_1-2_18_">
		<g>
			<path fill="#767676" d="M0,0v1399.984h1049.996V267.73L782.248,0H0z M758.336,140.566L909.428,291.66H758.336V140.566z
				 M933.338,1283.293H116.674V116.656h524.99v291.66h291.674V1283.293z"/>
		</g>
	</g>
	<polygon fill="#767676" points="466.662,876.137 362.249,771.129 279.414,853.965 466.662,1040.633 770.566,737.305 
		687.747,654.473 	"/>
</g>
</svg>
